{cst}
----------------------------------------------------------------------
- あなたの身上についてご入力下さい
----------------------------------------------------------------------
【氏名】  {txt1} {txt2}  【氏名終了】
【フリガナ】  {txt3} {txt4}  【フリガナ終了】
【生年月日】  {select1}年{select2}月{select3}日 {age_use}歳  【生年月日終了】
【電話番号】  {txt5}-{txt6}-{txt7}  【電話番号終了】
【メールアドレス】  {txt8}  【メールアドレス終了】
----------------------------------------------------------------------
- 最終学歴・語学・資格についてご入力下さい
----------------------------------------------------------------------
【学校名】  {txt10}  【学校名終了】
【学部】  {txt11}  【学部終了】
----------------------------------------------------------------------
- 最新のお仕事についてご入力下さい
----------------------------------------------------------------------
【会社名】  {txt14}  【会社名終了】
【勤務期間】  {select7}年{select8}月～{select9}年{select10}月（{radio1}）  【勤務期間終了】
【最新職種】  {select11}  【最新職種終了】
【最新年収】  {txt17}  【最新年収終了】
【職務内容】  {txt18}  【職務内容終了】
----------------------------------------------------------------------
- 何をご覧になって当社にアクセスいただきましたか？
----------------------------------------------------------------------
【媒体】  {select12}  【媒体終了】
【その他/具体的な名称】  {txt21}{select13}{select14}  【その他/具体的な名称終了】
----------------------------------------------------------------------
User EntryID           {entry_ID_userFix}
----------------------------------------------------------------------
--
http://www.kc-consul.com/entry/
-
{title}
-