----------------------------------------------------------------------
- 以下の求人コードへのエントリーです
----------------------------------------------------------------------
【求人ID】　　　　　　 {order_id}
.
----------------------------------------------------------------------
- あなたの身上についてご入力下さい
----------------------------------------------------------------------
【氏名】               {txt1} {txt2}
【フリガナ】           {txt3} {txt4}
【性別】              
【生年月日】           {select1}年 {select2}月 {select3}日 {age_use}歳
【住所】               
.                     {select4}
.                    
【TEL1】               {txt5}-{txt6}-{txt7}（携帯）
【Email】              {txt8}（自宅）
.
----------------------------------------------------------------------
- 最終学歴・語学・資格についてご入力下さい
----------------------------------------------------------------------
【最終学歴】           {txt10}
【学部/学科】          
【卒業年月】           
【その他学歴】
.
【その他学歴終了】
.
【英語力】             {select5}
【スコア】             TOEIC: {txt11}
【その他語学】             {txt12}
【資格・免許技能など】
.
【資格・免許技能など終了】
.
----------------------------------------------------------------------
- 最新のお仕事についてご入力下さい
----------------------------------------------------------------------
【経験社数】           {txt13}
【会社名】             {txt14}
【最新業種】           {select6}
【従業員数】           {txt15}
【勤務期間】           {select7}年{select8}月～{select9}年{select10}月（{radio1}）
【最新職種】           {select11}
【最終部課/職位】      {txt16}
【職務内容】
{txt18}
【職務内容終了】
.
【最新年収】           {txt17}万円
【現在の勤務地】       
【その他職歴】
{txt19}
【その他職歴終了】
.
----------------------------------------------------------------------
- 希望職務についてご入力下さい
----------------------------------------------------------------------
【会社資本】
【希望勤務地】         {txt20}
【希望職種】        
【希望職務内容】
.
【希望職務内容終了】
.
【希望最低年収】       
.
----------------------------------------------------------------------
- 以下の項目についてご入力下さい
----------------------------------------------------------------------
【転職希望時期】
.
.
.
----------------------------------------------------------------------
- 何をご覧になって当社にアクセスいただきましたか？
----------------------------------------------------------------------
【何をご覧になって当社にアクセスいただきましたか？】
 {select12}
.
【その他とお答えになった方は具体的な名称をご入力ください。】
{txt21}{select13} {select14}
.
----------------------------------------------------------------------
User EntryID           {entry_ID_userFix}
----------------------------------------------------------------------
--
http://www.kc-consul.com/entry-career-consultation/?entry_id=1014585
-
{title}
-